Digital electronics/FPGA/lab0/simulation/qsim/labzero.msim.vcd
$comment
	File created using the following command:
		vcd file labzero.msim.vcd -direction
$end
$date
	Thu Sep 10 15:56:28 2020
$end
$version
	ModelSim Version 2020.1
$end
$timescale
	1ps
$end

$scope module logic_element1_vlg_vec_tst $end
$var reg 8 ! SW [7:0] $end
$var wire 1 " LEDR $end

$scope module i1 $end
$var wire 1 # gnd $end
$var wire 1 $ vcc $end
$var wire 1 % unknown $end
$var tri1 1 & devclrn $end
$var tri1 1 ' devpor $end
$var tri1 1 ( devoe $end
$var wire 1 ) ~QUARTUS_CREATED_GND~I_combout $end
$var wire 1 * SW[3]~input_o $end
$var wire 1 + SW[6]~input_o $end
$var wire 1 , SW[2]~input_o $end
$var wire 1 - SW[7]~input_o $end
$var wire 1 . SW[1]~input_o $end
$var wire 1 / SW[4]~input_o $end
$var wire 1 0 SW[0]~input_o $end
$var wire 1 1 SW[5]~input_o $end
$var wire 1 2 y~0_combout $end
$var wire 1 3 y~1_combout $end
$upscope $end
$upscope $end
$enddefinitions $end
#0
$dumpvars
b1011011 !
0"
0#
1$
x%
1&
1'
1(
0)
1*
1+
0,
0-
1.
1/
10
01
02
13
$end
#10000
b1001011 !
b1001111 !
b1001110 !
00
1,
0/
#20000
b11001110 !
b11101110 !
b11111110 !
1/
11
1-
#30000
b11111111 !
b1111111 !
b1011111 !
b1001111 !
10
0/
01
0-
#40000
b1001101 !
b1001100 !
b1101100 !
00
0.
11
#50000
b101100 !
b100100 !
b10100100 !
b10000100 !
0*
01
0+
1-
12
#60000
b10000110 !
1.
02
#70000
b10000010 !
b11000010 !
b11001010 !
b11101010 !
b11101000 !
0.
0,
1*
11
1+
#80000
b11101100 !
b11100100 !
b11000100 !
1,
0*
01
12
#90000
b1000100 !
b1001100 !
b1101100 !
1*
11
0-
02
#100000
b101100 !
b101000 !
b10101000 !
b10100000 !
0,
0*
0+
1-
#110000
b10110000 !
b10010000 !
b10010100 !
b10100 !
b11100 !
1,
1*
1/
01
0-
#120000
b11110 !
b1011110 !
b1011010 !
1.
0,
1+
#130000
b11011010 !
b11010010 !
0*
1-
#140000
b11110010 !
b10110010 !
b10110110 !
1,
11
0+
#150000
b10110111 !
b10111111 !
b11111111 !
b11111011 !
10
0,
1*
1+
12
#160000
b11101011 !
b11101001 !
b11100001 !
0.
0*
0/
02
#170000
b11000001 !
b11000000 !
00
01
12
#180000
b11010000 !
b11010010 !
1.
1/
02
#190000
b11110010 !
b11110011 !
b11110001 !
10
0.
11
#200000
b1110001 !
b110001 !
b110000 !
b110010 !
00
1.
0+
0-
#210000
b110110 !
b100110 !
b110 !
b10000110 !
b11000110 !
b11000111 !
b11000101 !
10
0.
1,
0/
01
1+
1-
#220000
b1000101 !
b101 !
b111 !
1.
0+
0-
#230000
b1111 !
b101111 !
b101110 !
b10101110 !
00
1*
11
1-
12
#240000
b10111110 !
b10111100 !
b10110100 !
b10010100 !
b10100 !
0.
0*
1/
01
0-
02
#250000
b1010100 !
b1010101 !
b1000101 !
b1001101 !
b1101101 !
b11101101 !
10
1*
0/
11
1+
1-
#260000
b11101001 !
b11101000 !
b11001000 !
00
0,
01
12
#270000
b11001010 !
b10001010 !
b10011010 !
b10010010 !
b10010 !
b10110 !
b10111 !
b110111 !
10
1.
1,
0*
1/
11
0+
0-
#280000
b110101 !
b1110101 !
b1100101 !
b11100101 !
b11100001 !
b11100000 !
00
0.
0,
0/
1+
1-
02
#290000
b11000000 !
b11000010 !
b10000010 !
b10010010 !
b10010 !
b10011 !
10
1.
1/
01
0+
0-
#300000
b10111 !
b10101 !
b1010101 !
b1000101 !
b11000101 !
b11000100 !
00
0.
1,
0/
1+
1-
12
#310000
b11000110 !
b10000110 !
b10010110 !
b10010111 !
10
1.
1/
0+
02
#320000
b10011111 !
b10111111 !
b111111 !
1*
11
0-
12
#330000
b1111111 !
b1111110 !
00
1+
02
#340000
b1011110 !
b11011110 !
b11011111 !
10
01
1-
#350000
b11011011 !
b11011001 !
b10011001 !
b10111001 !
b111001 !
b111000 !
00
0.
0,
11
0+
0-
#360000
b110000 !
b110010 !
b10110010 !
1.
0*
1-
#370000
b10100010 !
b10100011 !
b10100001 !
b100001 !
10
0.
0/
0-
#380000
b1100001 !
b1101001 !
b1111001 !
b1111000 !
b11111000 !
00
1*
1/
1+
1-
#390000
b11101000 !
b1101000 !
0/
0-
#400000
b1101100 !
b1001100 !
b1000100 !
b1000101 !
b11000101 !
10
1,
0*
01
1-
#410000
b11000111 !
b10000111 !
b10000011 !
1.
0,
0+
#420000
b10010011 !
b10110011 !
b10110010 !
b10110000 !
b10110100 !
00
0.
1,
1/
11
#430000
b110100 !
b100100 !
b100000 !
0,
0/
0-
#440000
b100001 !
b100011 !
b110011 !
b110111 !
10
1.
1,
1/
12
#450000
b1110111 !
b1010111 !
b11010111 !
b11000111 !
b11000011 !
0,
0/
01
1+
1-
02
#460000
b10000011 !
b10000111 !
1,
0+
#470000
b10000101 !
b101 !
b10101 !
b1010101 !
b1010001 !
0.
0,
1/
1+
0-
12
#480000
b1010000 !
b1110000 !
b1110010 !
b1100010 !
00
1.
0/
11
#490000
b1100110 !
b1000110 !
1,
01
02
03
1"
13
0"
#500000
b110 !
b100110 !
11
0+
12
#510000
b101110 !
b10101110 !
b10101111 !
b10101011 !
b11101011 !
10
0,
1*
1+
1-
02
#520000
b11101001 !
b1101001 !
b1101000 !
b1101100 !
00
0.
1,
0-
#530000
b1101110 !
b1101111 !
b1101011 !
10
1.
0,
#540000
b1001011 !
b1000011 !
b11 !
b10000011 !
0*
01
0+
1-
#550000
b10000001 !
b10000101 !
b11000101 !
b1000101 !
0.
1,
1+
0-
#560000
b1010101 !
b1010001 !
b10001 !
0,
1/
0+
12
03
1"
#570000
b11001 !
b10011001 !
b10001001 !
b11001001 !
1*
0/
1+
1-
13
02
0"
#580000
b11011001 !
b10011001 !
1/
0+
12
03
1"
#590000
b10011000 !
b10011010 !
b10010010 !
b10000010 !
b11000010 !
00
1.
0*
0/
1+
13
02
0"
#600000
b11100010 !
b11100110 !
b1100110 !
b1110110 !
b110110 !
1,
1/
11
0+
0-
#610000
b110111 !
b110101 !
b10101 !
b10001 !
b10010001 !
10
0.
0,
01
1-
12
#620000
b10011001 !
b10001001 !
b10001011 !
b10101011 !
b10101111 !
b101111 !
1.
1,
1*
0/
11
0-
02
#630000
b101110 !
b101010 !
b10101010 !
00
0,
1-
12
03
1"
#640000
b10100010 !
b100010 !
0*
0-
#650000
b1100010 !
b1100000 !
b1101000 !
0.
1*
1+
13
02
0"
#660000
b1111000 !
b1111100 !
b1111110 !
b1110110 !
1.
1,
0*
1/
#670000
b1010110 !
b11010110 !
b11010010 !
b11010000 !
b11011000 !
0.
0,
1*
01
1-
#680000
b10011000 !
b10001000 !
b10001100 !
b10000100 !
1,
0*
0/
0+
12
#690000
b10000101 !
b10100101 !
b100101 !
b100111 !
b1100111 !
b1101111 !
10
1.
1*
11
1+
0-
02
#700000
b1111111 !
b1011111 !
b11011111 !
b11010111 !
0*
1/
01
1-
#710000
b11010110 !
b11110110 !
b1110110 !
b1111110 !
00
1*
11
0-
#720000
b1111100 !
b111100 !
b11100 !
0.
01
0+
#730000
b11000 !
b1000 !
b10001000 !
b10001010 !
1.
0,
0/
1-
#740000
b10001011 !
b10000011 !
b11000011 !
b11010011 !
b11010001 !
10
0.
0*
1/
1+
12
#750000
b11010101 !
b11011101 !
b10011101 !
1,
1*
0+
#760000
b11101 !
b1101 !
b1001 !
b1001001 !
0,
0/
1+
0-
02
#770000
b1001011 !
b1000011 !
b11000011 !
b11000111 !
b10000111 !
1.
1,
0*
0+
1-
#780000
b10100111 !
b10100110 !
b10110110 !
b10110100 !
b10111100 !
b10111000 !
b11111000 !
00
0.
0,
1*
1/
11
1+
#790000
b1111000 !
b1111010 !
1.
0-
#800000
b1011010 !
b1011011 !
b1001011 !
b1011 !
b10001011 !
b10001001 !
10
0.
0/
01
0+
1-
#810000
b10101001 !
b10101000 !
b11101000 !
b1101000 !
b1101010 !
00
1.
11
1+
0-
12
#820000
b1100010 !
b1100110 !
b1110110 !
b1010110 !
b10110 !
b10010110 !
1,
0*
1/
01
0+
1-
02
#830000
b10010111 !
b10011111 !
b10011011 !
b11011 !
10
0,
1*
0-
#840000
b11001 !
b11101 !
b10011101 !
0.
1,
1-
12
#850000
b10001101 !
b10101101 !
b11101101 !
b11100101 !
b1100101 !
0*
0/
11
1+
0-
03
02
1"
13
0"
#860000
b1100111 !
b1110111 !
b1111111 !
b11111111 !
1.
1*
1/
1-
12
03
1"
#870000
b11111110 !
b11111100 !
00
0.
02
13
0"
#880000
b11011100 !
b11010100 !
b1010100 !
b1010101 !
10
0*
01
0-
12
03
1"
#890000
b1010001 !
b10001 !
b1 !
b100001 !
b101001 !
b10101001 !
b10101000 !
00
0,
1*
0/
11
0+
1-
02
13
0"
#900000
b10111000 !
b10011000 !
b10010000 !
b10000 !
0*
1/
01
0-
#910000
b10100 !
b1010100 !
b1000100 !
b1001100 !
1,
1*
0/
1+
12
#920000
b1001101 !
b1001001 !
b1011001 !
10
0,
1/
#930000
b1011011 !
b1010011 !
b1010010 !
b1010110 !
00
1.
1,
0*
03
02
1"
13
0"
#940000
b11010110 !
b11010100 !
0.
1-
#950000
b11110100 !
b10110100 !
b10110000 !
b10110010 !
1.
0,
11
0+
#960000
b10100010 !
b10101010 !
b101010 !
b1010 !
1*
0/
01
0-
#970000
b10 !
b100010 !
0*
11
12
03
1"
#980000
b100011 !
b110011 !
b111011 !
10
1*
1/
13
0"
#990000
b1111011 !
b1111111 !
b1111110 !
b1110110 !
00
1,
0*
1+
03
02
1"
13
0"
